<?xml version="1.0" encoding="UTF-8"?>
<!DOCTYPE svg PUBLIC "-//W3C//DTD SVG 1.1//EN" "http://www.w3.org/Graphics/SVG/1.1/DTD/svg11.dtd">
<!-- Creator: CorelDRAW X6 -->
<svg xmlns="http://www.w3.org/2000/svg" xml:space="preserve" width="88px" height="59px" version="1.1" style="shape-rendering:geometricPrecision; text-rendering:geometricPrecision; image-rendering:optimizeQuality; fill-rule:evenodd; clip-rule:evenodd"
viewBox="0 0 421128 280404"
 xmlns:xlink="http://www.w3.org/1999/xlink">
 <defs>
  <style type="text/css">
   <![CDATA[
    .str1 {stroke:#FEFEFE;stroke-width:4959.56}
    .str0 {stroke:#FEFEFE;stroke-width:11284.5}
    .str2 {stroke:#FEFEFE;stroke-width:14105.7}
    .fil2 {fill:none}
    .fil3 {fill:#FEFEFE}
    .fil1 {fill:#E75328}
    .fil0 {fill:#FEFEFE}
   ]]>
  </style>
 </defs>
 <g id="Слой_x0020_1">
  <metadata id="CorelCorpID_0Corel-Layer"/>
  <path class="fil0" d="M405549 262303l15579 0 0 18101 -15579 0 0 -18101zm-405549 0l15567 0 0 18101 -15567 0 0 -18101zm36878 0l15567 0 0 18101 -15567 0 0 -18101zm36850 0l15589 0 0 18101 -15589 0 0 -18101zm36866 0l15578 0 0 18101 -15578 0 0 -18101zm36878 0l15573 0 0 18101 -15573 0 0 -18101zm36855 0l15596 0 0 18101 -15596 0 0 -18101zm36878 0l15578 0 0 18101 -15578 0 0 -18101zm36867 0l15578 0 0 18101 -15578 0 0 -18101zm36866 0l15579 0 0 18101 -15579 0 0 -18101zm36873 0l15584 0 0 18101 -15584 0 0 -18101zm36866 0l15573 0 0 18101 -15573 0 0 -18101z"/>
  <polygon class="fil1 str0" points="206885,65693 298617,74907 301517,46080 209785,36861 "/>
  <polygon class="fil1 str0" points="78862,61427 237303,77350 241912,31484 83472,15561 "/>
  <line class="fil2 str1" x1="117438" y1="54775" x2="180936" y2= "61157" />
  <path class="fil2 str1" d="M97002 52721c3131,311 6257,627 9394,943"/>
  <polygon class="fil1 str0" points="67606,68723 82197,70184 88476,7640 73886,6178 "/>
  <polygon class="fil3" points="227671,90615 227671,195381 "/>
  <polygon class="fil3" points="227034,90615 185129,195381 "/>
  <path class="fil2 str2" d="M227034 90615l-41905 104766m43185 -104766l41900 104766m-42543 -104766l0 104766"/>
  <polygon class="fil3" points="228314,90615 270214,195381 "/>
  <path class="fil3" d="M248807 76148c0,11668 -9462,21136 -21136,21136 -11674,0 -21136,-9468 -21136,-21136 0,-11674 9462,-21136 21136,-21136 11674,0 21136,9462 21136,21136z"/>
  <path class="fil1 str1" d="M248807 76148c0,11668 -9462,21136 -21136,21136 -11674,0 -21136,-9468 -21136,-21136 0,-11674 9462,-21136 21136,-21136 11674,0 21136,9462 21136,21136z"/>
  <path class="fil2 str1" d="M220207 63216c7143,-4125 16272,-1676 20396,5462 4119,7137 1676,16272 -5467,20402"/>
  <path class="fil0" d="M227372 65642c-5981,-96 -10906,4666 -11002,10653 -102,5975 4672,10906 10652,11002 5981,102 10907,-4672 11003,-10652 96,-5981 -4666,-10907 -10653,-11003z"/>
  <path class="fil1" d="M224325 85102c-5,457 339,841 802,875 3351,248 6246,-609 8356,-2477 2121,-1873 3323,-4627 3481,-7961 17,-486 -344,-886 -818,-909 -474,-22 -880,344 -908,824 -136,2861 -1140,5197 -2901,6754 -1754,1551 -4203,2257 -7086,2042 -474,-33 -886,322 -920,802 -6,17 -6,28 -6,50z"/>
 </g>
</svg>
